0

anadir/modificar idiomita2
4
a 1 
b 1
c 1
d 1

tabla_frec idiomita2

treecode idiomita2

codigos idiomita2  todos

codigos idiomita2 a

codifica idiomita2 
abcdaaaacd

codifica idiomita2 
xbcdaaaacd

decodifica idiomita2
00011011000000001011

decodifica idiomita2
111

anadir/modificar idioma_kawaii_desu_nya_nee_neko_chan
19
( 5
) 6
~ 7
･ 9
✖ 10
‿ 32
ω 11
□ 4
° 1
╯ 2
っ3
｀8
´ 9
_ 45
ɜ 85
ｏ16
• 74
✧ 57
u 54

codifica idioma_kawaii_desu_nya_nee_neko_chan 
(╯°□°）╯

codifica idioma_kawaii_desu_nya_nee_neko_chan 
(´･ω･`)

codifica idioma_kawaii_desu_nya_nee_neko_chan 
(╯°□°)╯︵ ┻━┻

codifica idioma_kawaii_desu_nya_nee_neko_chan 
uωu
